{
  "status": 200,
  "currentPage":0,
  "totalPages":11,
  "totalRecords":208,
  "count":20,  
  "results": [
  {
      "lastWebhookAttempt": null,
      "id": "xxxxxxxxxxxxx",
      "webhookAttempts": 0,
      "status": "PROCESSING",
      "webhookUrl": "http://link-to-webhook-server.com",
      "quality": "LOW",
      "submitted": "2013-02-05T20:19:19.000Z"
  },
  {
    "lastWebhookAttempt": "2013-02-05T00:37:38.000Z",
    "webhookAttempts": 1,
    "webhookUrl": "http://link-to-webhook-server.com",
    "quality": "MEDIUM",
    "submitted": "2013-02-05T00:13:19.000Z",							
    "vCardUrl": "https://link-to-vcard.vcf",
    "status": "CALLBACK_MADE",
    "clientServerResponseCode": 200,
    "id": "xxxxxxxxxxxxx",
    "contact": {
      "photos":
      [
        {
          "primary": false,
          "value": "https://link-to-image.jpg",
          "type": "BusinessCard"
        }
      ],
      "accounts":
      [
        {
          "username": "lorangb",
          "domain": "twitter.com",
          "urlString": "http://twitter.com/lorangb"
        }
      ],
      "organizations":
      [
        {
          "title": "CEO / Co-Founder",
          "isPrimary": false,
          "name": "FullContact"
        }
      ],
      "urls":
      [
        {
          "value": "www.fullcontact.com",
          "type": "other"
        }
      ],
      "name": {
        "familyName": "Lorang",
        "givenName": "Bart"
      },
      "phoneNumbers":
      [
        {
          "value": "(XXX) XXX-XXXX",
          "type": "work"
        }
      ],
      "emails":
      [
        {
          "value": "bart@fullcontact.com",
          "type": "work"
        }
      ]
    }
  }]
}
